<?xml version="1.0" encoding="utf-8"?>
<!-- Generator: Adobe Illustrator 17.0.0, SVG Export Plug-In . SVG Version: 6.00 Build 0)  -->
<!DOCTYPE svg PUBLIC "-//W3C//DTD SVG 1.1//EN" "http://www.w3.org/Graphics/SVG/1.1/DTD/svg11.dtd">
<svg version="1.1" id="Layer_1" xmlns="http://www.w3.org/2000/svg" xmlns:xlink="http://www.w3.org/1999/xlink" x="0px" y="0px"
	 width="425.19px" height="297.645‬px" viewBox="0 0 283.46 198.43" enable-background="new 0 0 283.46 198.43" xml:space="preserve">
<g>
	<g>
		<path fill="#29AFF0" d="M36.117,171.623c-2.055,0-3.841-0.356-5.361-1.068c-1.521-0.711-2.779-1.706-3.777-2.983
			c-0.999-1.277-1.741-2.794-2.228-4.549c-0.487-1.754-0.731-3.681-0.731-5.778c0-2.161,0.244-4.112,0.731-5.854
			c0.487-1.741,1.222-3.222,2.202-4.444c0.98-1.22,2.214-2.161,3.699-2.821c1.485-0.661,3.226-0.993,5.222-0.993
			c1.532,0,2.861,0.194,3.986,0.582c1.126,0.387,2.094,0.903,2.908,1.544c0.812,0.643,1.497,1.38,2.054,2.212
			c0.558,0.833,1.027,1.701,1.411,2.603l-3.586,1.43c-0.244-0.585-0.551-1.17-0.922-1.754c-0.372-0.585-0.825-1.109-1.358-1.573
			c-0.534-0.465-1.166-0.84-1.898-1.125c-0.732-0.286-1.573-0.429-2.525-0.429c-1.381,0-2.568,0.253-3.56,0.762
			c-0.993,0.509-1.804,1.224-2.437,2.145c-0.633,0.922-1.099,2.036-1.401,3.347c-0.302,1.309-0.453,2.765-0.453,4.367
			c0,1.589,0.166,3.051,0.496,4.385c0.331,1.335,0.83,2.486,1.497,3.452c0.668,0.966,1.502,1.716,2.506,2.249
			c1.004,0.535,2.179,0.801,3.525,0.801c0.976,0,1.84-0.172,2.594-0.516c0.754-0.342,1.416-0.781,1.984-1.316
			c0.567-0.534,1.053-1.128,1.453-1.782s0.728-1.301,0.983-1.935l3.534,1.601c-0.418,0.929-0.914,1.837-1.489,2.727
			c-0.574,0.89-1.276,1.684-2.107,2.384c-0.83,0.699-1.813,1.262-2.95,1.688C38.984,171.409,37.649,171.623,36.117,171.623z"/>
		<path fill="#29AFF0" d="M69.053,161.133c0,1.552-0.204,2.969-0.61,4.252c-0.407,1.285-1.015,2.387-1.827,3.31
			c-0.812,0.921-1.822,1.639-3.029,2.154c-1.208,0.516-2.617,0.773-4.23,0.773c-1.544,0-2.908-0.255-4.091-0.763
			c-1.184-0.508-2.18-1.223-2.986-2.145c-0.806-0.921-1.418-2.028-1.836-3.318c-0.418-1.29-0.627-2.71-0.627-4.262
			c0-1.5,0.198-2.888,0.592-4.165c0.394-1.278,0.989-2.385,1.784-3.32c0.795-0.933,1.799-1.662,3.012-2.183
			c1.212-0.522,2.637-0.781,4.274-0.781c1.705,0,3.163,0.26,4.369,0.781c1.207,0.522,2.196,1.246,2.967,2.175
			c0.773,0.927,1.338,2.031,1.698,3.309C68.873,158.227,69.053,159.622,69.053,161.133z M65.083,161.133
			c0-1.297-0.119-2.415-0.357-3.356c-0.239-0.941-0.592-1.717-1.062-2.327c-0.47-0.61-1.051-1.058-1.741-1.344
			c-0.691-0.286-1.482-0.43-2.376-0.43c-1.857,0-3.279,0.607-4.266,1.821c-0.987,1.214-1.48,3.093-1.48,5.635
			c0,1.297,0.134,2.42,0.401,3.367c0.267,0.947,0.642,1.726,1.123,2.337c0.482,0.61,1.062,1.065,1.741,1.364
			c0.679,0.299,1.43,0.448,2.254,0.448c0.916,0,1.732-0.146,2.446-0.438c0.715-0.292,1.317-0.744,1.81-1.355
			c0.493-0.61,0.868-1.388,1.123-2.336C64.952,163.573,65.083,162.444,65.083,161.133z"/>
		<path fill="#29AFF0" d="M81.5,171.623c-1.532,0-2.87-0.247-4.013-0.744c-1.144-0.496-2.094-1.198-2.855-2.107
			c-0.76-0.909-1.329-1.996-1.706-3.262c-0.377-1.265-0.566-2.673-0.566-4.223c0-1.665,0.209-3.156,0.627-4.472
			c0.418-1.316,1.021-2.428,1.81-3.337c0.789-0.908,1.756-1.601,2.898-2.078c1.142-0.477,2.441-0.715,3.891-0.715
			c1.23,0,2.327,0.156,3.29,0.467c0.963,0.312,1.793,0.752,2.49,1.324c0.696,0.572,1.259,1.262,1.689,2.07
			c0.429,0.807,0.731,1.706,0.905,2.699l-3.882,0.304c-0.198-1.246-0.685-2.183-1.463-2.812s-1.816-0.945-3.116-0.945
			c-1.73,0-3.046,0.619-3.951,1.86c-0.905,1.239-1.358,3.042-1.358,5.405c0,2.517,0.47,4.399,1.411,5.644
			c0.94,1.246,2.251,1.869,3.934,1.869c0.627,0,1.207-0.082,1.741-0.247s1.004-0.42,1.409-0.763c0.406-0.342,0.743-0.773,1.01-1.287
			c0.267-0.516,0.453-1.121,0.556-1.821l3.812,0.381c-0.116,0.915-0.383,1.783-0.8,2.603c-0.417,0.82-0.987,1.542-1.706,2.165
			c-0.72,0.623-1.584,1.115-2.594,1.477C83.954,171.441,82.799,171.623,81.5,171.623z"/>
		<path fill="#29AFF0" d="M112.416,161.133c0,1.552-0.204,2.969-0.61,4.252c-0.407,1.285-1.015,2.387-1.827,3.31
			c-0.812,0.921-1.822,1.639-3.029,2.154c-1.208,0.516-2.617,0.773-4.23,0.773c-1.544,0-2.908-0.255-4.091-0.763
			c-1.184-0.508-2.18-1.223-2.986-2.145c-0.806-0.921-1.418-2.028-1.836-3.318c-0.418-1.29-0.627-2.71-0.627-4.262
			c0-1.5,0.198-2.888,0.592-4.165c0.394-1.278,0.989-2.385,1.784-3.32c0.795-0.933,1.799-1.662,3.012-2.183
			c1.212-0.522,2.637-0.781,4.274-0.781c1.705,0,3.163,0.26,4.369,0.781c1.207,0.522,2.196,1.246,2.967,2.175
			c0.773,0.927,1.338,2.031,1.698,3.309C112.235,158.227,112.416,159.622,112.416,161.133z M108.446,161.133
			c0-1.297-0.119-2.415-0.357-3.356c-0.239-0.941-0.592-1.717-1.062-2.327c-0.47-0.61-1.051-1.058-1.741-1.344
			c-0.691-0.286-1.482-0.43-2.376-0.43c-1.857,0-3.279,0.607-4.266,1.821c-0.987,1.214-1.48,3.093-1.48,5.635
			c0,1.297,0.134,2.42,0.401,3.367c0.267,0.947,0.642,1.726,1.123,2.337c0.482,0.61,1.062,1.065,1.741,1.364s1.43,0.448,2.254,0.448
			c0.916,0,1.732-0.146,2.446-0.438c0.715-0.292,1.317-0.744,1.81-1.355c0.493-0.61,0.868-1.388,1.123-2.336
			C108.315,163.573,108.446,162.444,108.446,161.133z"/>
		<path fill="#29AFF0" d="M135.341,161.058c0,1.552-0.162,2.972-0.487,4.262c-0.325,1.291-0.818,2.402-1.48,3.337
			c-0.661,0.935-1.5,1.663-2.516,2.183c-1.015,0.522-2.219,0.783-3.611,0.783c-0.708,0-1.39-0.083-2.045-0.247
			c-0.655-0.166-1.265-0.41-1.829-0.734c-0.563-0.325-1.073-0.732-1.532-1.22c-0.459-0.49-0.844-1.058-1.158-1.707h-0.069
			c0,0.319-0.009,0.671-0.026,1.058s-0.035,0.753-0.052,1.097c-0.017,0.344-0.038,0.644-0.061,0.905
			c-0.023,0.261-0.041,0.417-0.052,0.467h-3.656c0.011-0.152,0.026-0.372,0.043-0.658c0.017-0.286,0.035-0.626,0.052-1.02
			c0.017-0.393,0.028-0.83,0.035-1.307c0.005-0.477,0.009-0.975,0.009-1.496v-24.105h3.777v8.773c0,0.393-0.002,0.785-0.009,1.172
			c-0.006,0.387-0.015,0.741-0.026,1.057c-0.012,0.37-0.023,0.726-0.035,1.068h0.069c1.299-2.734,3.581-4.1,6.841-4.1
			c1.358,0,2.53,0.261,3.516,0.783s1.795,1.243,2.428,2.164c0.633,0.922,1.103,2.021,1.411,3.3
			C135.187,158.15,135.341,159.545,135.341,161.058z M131.441,161.058c0-2.378-0.444-4.21-1.332-5.501s-2.237-1.935-4.047-1.935
			c-0.696,0-1.369,0.124-2.019,0.372c-0.649,0.247-1.23,0.668-1.741,1.259c-0.511,0.592-0.92,1.37-1.228,2.337
			c-0.308,0.966-0.461,2.174-0.461,3.624c0,1.411,0.151,2.594,0.453,3.546c0.302,0.953,0.705,1.72,1.21,2.297
			c0.504,0.58,1.082,0.989,1.732,1.23c0.649,0.241,1.323,0.362,2.019,0.362c1.706,0,3.035-0.626,3.987-1.879
			C130.966,165.516,131.441,163.613,131.441,161.058z"/>
		<path fill="#29AFF0" d="M143.487,151.104v11.327c0,0.878,0.077,1.685,0.227,2.422c0.151,0.738,0.403,1.372,0.757,1.908
			c0.354,0.534,0.818,0.951,1.392,1.249c0.575,0.299,1.286,0.448,2.134,0.448c0.789,0,1.508-0.162,2.157-0.487
			c0.649-0.324,1.204-0.775,1.663-1.354c0.459-0.579,0.815-1.271,1.071-2.078c0.255-0.807,0.383-1.688,0.383-2.642v-10.792h3.846
			v15.483c0,0.445,0.002,0.915,0.009,1.412c0.006,0.497,0.015,0.966,0.026,1.412c0.011,0.446,0.035,1.056,0.07,1.83h-3.586
			c-0.047-0.789-0.078-1.402-0.096-1.84c-0.017-0.438-0.033-0.878-0.052-1.316c-0.017-0.438-0.026-0.804-0.026-1.097h-0.105
			c-0.765,1.627-1.704,2.807-2.81,3.537c-1.108,0.731-2.447,1.097-4.013,1.097c-1.254,0-2.314-0.21-3.185-0.629
			c-0.87-0.42-1.574-0.999-2.114-1.736c-0.54-0.737-0.929-1.597-1.166-2.584c-0.237-0.984-0.357-2.042-0.357-3.174v-12.395H143.487z
			"/>
		<path fill="#29AFF0" d="M169.424,171.413c-0.661,0.089-1.364,0.134-2.106,0.134c-1.37,0-2.42-0.42-3.152-1.26
			c-0.732-0.839-1.097-2.097-1.097-3.776v-12.491h-2.438v-2.917h2.473l1.235-4.824h2.506v4.824h4.231v2.917h-4.231v11.595
			c0,1.03,0.192,1.779,0.575,2.25c0.383,0.47,0.957,0.705,1.724,0.705c0.325,0,0.682-0.031,1.071-0.095
			c0.388-0.064,0.75-0.127,1.088-0.19v2.726C170.712,171.19,170.087,171.324,169.424,171.413z"/>
		<path fill="#29AFF0" d="M181.593,171.413c-0.661,0.089-1.364,0.134-2.106,0.134c-1.37,0-2.42-0.42-3.152-1.26
			c-0.732-0.839-1.097-2.097-1.097-3.776v-12.491h-2.438v-2.917h2.473l1.235-4.824h2.506v4.824h4.231v2.917h-4.231v11.595
			c0,1.03,0.192,1.779,0.575,2.25c0.383,0.47,0.957,0.705,1.724,0.705c0.325,0,0.682-0.031,1.071-0.095
			c0.388-0.064,0.75-0.127,1.088-0.19v2.726C182.881,171.19,182.254,171.324,181.593,171.413z"/>
		<path fill="#29AFF0" d="M189.931,161.936c0,0.992,0.101,1.9,0.305,2.726c0.203,0.827,0.522,1.538,0.956,2.136
			c0.436,0.597,0.993,1.061,1.673,1.392c0.679,0.331,1.494,0.496,2.446,0.496c0.627,0,1.215-0.064,1.768-0.19
			c0.55-0.127,1.05-0.321,1.496-0.582c0.446-0.261,0.831-0.579,1.15-0.953s0.56-0.81,0.722-1.307l3.377,0.744
			c-0.22,0.597-0.542,1.205-0.966,1.822c-0.424,0.617-0.978,1.176-1.663,1.678c-0.685,0.502-1.512,0.915-2.48,1.239
			c-0.969,0.325-2.115,0.487-3.438,0.487c-3.028,0-5.341-0.88-6.936-2.642c-1.596-1.761-2.394-4.402-2.394-7.923
			c0-1.957,0.263-3.6,0.793-4.928c0.528-1.328,1.226-2.396,2.097-3.205c0.87-0.806,1.868-1.382,2.995-1.726
			c1.125-0.342,2.286-0.514,3.48-0.514c1.578,0,2.936,0.263,4.074,0.791c1.137,0.528,2.072,1.267,2.803,2.222
			c0.732,0.953,1.271,2.094,1.62,3.424c0.349,1.329,0.522,2.794,0.522,4.395v0.42h-14.398V161.936z M200.602,159.247
			c-0.058-0.89-0.203-1.688-0.435-2.394c-0.232-0.706-0.56-1.303-0.984-1.793c-0.424-0.49-0.946-0.864-1.568-1.125
			c-0.621-0.26-1.355-0.389-2.201-0.389c-0.661,0-1.309,0.092-1.941,0.277c-0.633,0.183-1.202,0.495-1.706,0.933
			c-0.504,0.439-0.92,1.024-1.245,1.754c-0.325,0.732-0.511,1.643-0.556,2.737h10.637V159.247z"/>
		<path fill="#29AFF0" d="M218.261,154.326c-0.319-0.051-0.681-0.077-1.088-0.077c-0.743,0-1.401,0.176-1.976,0.524
			c-0.575,0.35-1.056,0.843-1.445,1.477c-0.388,0.637-0.685,1.396-0.888,2.28c-0.203,0.884-0.304,1.866-0.304,2.946v9.762h-3.778
			v-15.198c0-0.457-0.002-0.951-0.009-1.477c-0.006-0.527-0.015-1.03-0.026-1.507c-0.011-0.477-0.035-1.128-0.069-1.955h3.551
			c0.046,0.864,0.08,1.534,0.104,2.012s0.043,0.948,0.062,1.412c0.017,0.464,0.026,0.83,0.026,1.097h0.07
			c0.244-0.8,0.516-1.51,0.818-2.127c0.3-0.616,0.652-1.135,1.053-1.554c0.399-0.42,0.867-0.734,1.401-0.945
			s1.166-0.314,1.898-0.314c0.279,0,0.554,0.022,0.827,0.067c0.272,0.044,0.485,0.085,0.636,0.125v3.661
			C218.868,154.447,218.581,154.378,218.261,154.326z"/>
		<path fill="#29AFF0" d="M241.771,151.923c0,1.17-0.181,2.282-0.54,3.337c-0.36,1.055-0.905,1.981-1.637,2.774
			c-0.731,0.795-1.653,1.423-2.767,1.888c-1.114,0.464-2.426,0.696-3.934,0.696h-5.884v10.622h-4.039v-27.727h9.696
			c1.544,0,2.884,0.204,4.022,0.611c1.137,0.407,2.083,0.976,2.837,1.706c0.753,0.732,1.317,1.615,1.688,2.651
			C241.586,149.519,241.771,150.666,241.771,151.923z M237.697,151.962c0-1.653-0.459-2.936-1.375-3.853
			c-0.916-0.915-2.297-1.372-4.143-1.372h-5.171v10.697h5.344c0.929,0,1.728-0.136,2.401-0.409c0.674-0.273,1.228-0.652,1.663-1.135
			c0.436-0.483,0.757-1.057,0.966-1.726S237.697,152.763,237.697,151.962z"/>
		<path fill="#29AFF0" d="M254.983,172.671c-0.511,1.334-1.011,2.479-1.506,3.431c-0.492,0.953-1.011,1.736-1.558,2.345
			s-1.125,1.056-1.741,1.335c-0.614,0.279-1.299,0.419-2.054,0.419c-0.556,0-1.042-0.026-1.454-0.077
			c-0.412-0.051-0.821-0.115-1.227-0.19v-2.995c0.232,0.038,0.496,0.068,0.793,0.085c0.295,0.02,0.554,0.028,0.774,0.028
			c0.592,0,1.082-0.109,1.471-0.324c0.387-0.218,0.748-0.528,1.078-0.935c0.331-0.407,0.639-0.912,0.924-1.517
			c0.283-0.603,0.559-1.293,0.826-2.07l0.331-0.972l-7.832-20.137h4.073l5.71,15.675l5.276-15.675h4.021L254.983,172.671z"/>
	</g>
	<path fill="#29AFF0" d="M190.231,95.818c17.975-9.114,28.603-18.132,26.46-23.833c-3.333-8.871-36.344-6.49-74.902,5.112
		c1.367,0.401,2.742,0.816,4.124,1.241c34.441-9.998,64.878-13.014,67.673-5.576c1.831,4.875-9.6,13.53-26.044,21.716
		c-10.785-5.273-23.938-10.529-38.438-15.145c-1.068-0.34-2.13-0.669-3.191-0.995c-1.365,0.397-2.737,0.802-4.118,1.223
		c2.095,0.622,4.207,1.268,6.337,1.946c13.86,4.411,26.426,9.383,36.668,14.31c-10.166,4.861-22.577,9.758-36.25,14.11
		c-2.27,0.722-4.523,1.412-6.755,2.072c-1.52-0.46-3.048-0.93-4.586-1.42c-14.28-4.545-27.198-9.686-37.603-14.758
		c10.477-5.139,23.546-10.358,38.021-14.965c1.397-0.445,2.785-0.874,4.168-1.294c-1.382-0.41-2.757-0.812-4.12-1.197
		c-0.341,0.107-0.679,0.209-1.02,0.318c-15.093,4.804-28.732,10.302-39.754,15.791c-15.651-7.952-26.55-16.319-24.767-21.063
		c2.735-7.281,32.068-4.515,65.542,4.953c1.379-0.434,2.75-0.855,4.115-1.266c-37.617-11.04-69.453-13.164-72.724-4.461
		c-2.091,5.566,7.984,14.291,25.185,23.182c-17.109,8.864-27.117,17.554-25.032,23.103c3.266,8.691,35.02,6.587,72.571-4.415
		c38.492,11.562,71.421,13.926,74.75,5.066C218.674,113.888,208.113,104.905,190.231,95.818z M72.456,118.133
		c-1.67-4.738,9.057-13.089,24.459-20.966c10.993,5.462,24.569,10.929,39.586,15.709c0.361,0.114,0.718,0.223,1.077,0.336
		C104.336,122.556,74.398,123.643,72.456,118.133z M213.585,118.781c-2.781,7.402-33.368,4.332-67.586-5.541
		c1.082-0.333,2.166-0.669,3.256-1.016c14.429-4.592,27.524-9.82,38.278-15.066C203.732,105.272,215.402,113.948,213.585,118.781z"
		/>
	<g>
		<path fill="#FCB21C" d="M141.499,21.16c0,0-37.637,29.959-37.842,47.553c-0.24,20.65,16.111,37.458,38.904,37.458
			s37.639-16.807,37.878-37.458C180.641,51.119,141.499,21.16,141.499,21.16z"/>
		<path fill="#FFFFFF" d="M174.268,72.645c-0.111,10.771-9.457,24.223-21.526,23.856c-4.525-0.137-6.492-5.044-4.799-10.969
			c1.371-4.799,7.978-14.249,9.324-17.276c1.645-3.702,5.21-17.139,5.21-17.139S174.364,63.468,174.268,72.645z"/>
	</g>
</g>
</svg>
